^C:\USERS\THENETWORK\SOURCE\REPOS\HOMEWORK_14\DEBUG\MAIN.OBJ
C:\USERS\THENETWORK\SOURCE\REPOS\HOMEWORK_14\DEBUG\HOMEWORK_14.EXE
C:\USERS\THENETWORK\SOURCE\REPOS\HOMEWORK_14\DEBUG\HOMEWORK_14.ILK
C:\USERS\THENETWORK\SOURCE\REPOS\HOMEWORK_14\DEBUG\HOMEWORK_14.PDB
